-------------------------------------------------------------------------------
Test set: com.bh10.project.shorttermjobs.service.ProfileServiceTest
-------------------------------------------------------------------------------
Tests run: 27, Failures: 0, Errors: 0, Skipped: 0, Time elapsed: 0.083 sec
