-------------------------------------------------------------------------------
Test set: com.bh10.project.shorttermjobs.service.ApplicationServiceTest
-------------------------------------------------------------------------------
Tests run: 7, Failures: 0, Errors: 0, Skipped: 0, Time elapsed: 0.043 sec
